a52dec 0.7.4-10
aalib 1.4rc5-13
accounts-qml-module 0.7-2
accountsservice 0.6.55-1
acl 2.2.53-2
adobe-source-code-pro-fonts 2.030ro+1.050it-5
adwaita-icon-theme 3.34.3-1
alembic 1.7.12-1
alsa-lib 1.2.1.2-3
alsa-plugins 1.2.1-1
alsa-topology-conf 1.2.1-1
alsa-ucm-conf 1.2.1.2-1
arandr 0.1.10-4
archlinux-keyring 20200108-1
archlinuxarm-keyring 20140119-1
argon2 20190702-2
aribb24 1.0.3-2
ark 19.12.1-1
aspell 0.60.8-1
at-spi2-atk 2.34.1-1
at-spi2-core 2.34.0-1
atk 2.34.1-1
atkmm 2.28.0-1
attica 5.66.0-1
attr 2.4.48-2
audacity 1:2.3.3-1
audit 2.8.5-6
avahi 0.7+18+g1b5f401-3
babl 0.1.74-1
baloo 5.66.0-1
base 2-2
bash 5.0.011-2
blas 3.9.0-2
blosc 1.17.1-1
bluez 5.52-2
bluez-libs 5.52-2
bluez-utils 5.52-2
boost-libs 1.72.0-1
bootsplash-systemd 0.1.2-1
bootsplash-theme-manjaro 0.1-2
brcm-patchram-plus r2.b146b53-1
brotli 1.0.7-3
btrfs-progs 5.4-1
bubblewrap 0.4.0-1
bzip2 1.0.8-3
ca-certificates 20181109-3
ca-certificates-mozilla 3.49.2-3
ca-certificates-utils 20181109-3
cairo 1.17.2+17+g52a7c79fd-2
cairomm 1.12.2-3
cantarell-fonts 1:0.201-1
cblas 3.9.0-2
cdparanoia 10.2-7
cfitsio 1:3.47-1
cinnamon-desktop 4.4.1-1
clucene 2.3.3.4-10
cmatrix 2.0-1
colord 1.4.4+9+g1ce26da-1
compton 7.4-1
confuse 3.2.2-1
convertlit 1.8-8
coreutils 8.31-3
cracklib 2.9.7-2
cryptsetup 2.3.0-1
curl 7.68.0-1
dav1d 0.5.2-1
db 5.3.28-5
dbus 1.12.16-5
dbus-glib 0.110-1
dconf 0.34.0-1
desktop-file-utils 0.24-1
device-mapper 2.02.186-5
dhcpcd 8.1.6-1
dialog 1:1.3_20191210-1
diffutils 3.7-3
discount 2.2.6-1
djvulibre 3.5.27-5
dmenu 4.9-1
dmraid 1.0.0.rc16.3-12
dnssec-anchors 20190629-2
dosfstools 4.1-3
double-conversion 3.1.5-1
e2fsprogs 1.45.5-1
ebook-tools 0.2.2-6
enchant 2.2.7-1
exempi 2.5.1-1
exiv2 0.27.2-1
expat 2.2.9-3
faad2 2.9.1-2
fakeroot 1.24-2
ffmpeg 1:4.2.2-2
fftw 3.3.8-2
file 5.38-3
filesystem 2019.04-1
findutils 4.7.0-2
firefox 72.0.2-1.1
firmware-raspberrypi 6-1
flac 1.3.3-1
fontconfig 2:2.13.91+24+g75eadca-2
freetype2 2.10.1-1
fribidi 1.0.8-1
fuse-common 3.9.0-1
fuse3 3.9.0-1
gawk 5.0.1-2
gcc-libs 9.2.0-4
gcr 3.34.0-1
gdbm 1.18.1-3
gdk-pixbuf2 2.40.0-1
gdm 3.34.1-1
gegl 0.4.20-1
geoclue2 2.5.2-2
geocode-glib 3.26.1-1
gettext 0.20.1-3
ghostscript 9.50-2
giblib 1.2.4-7
giflib 5.2.1-1
gimp 2.10.14-1
git 2.25.0-1
gjs 2:1.58.4-1
glew 2.1.0-1
glib-networking 2.62.3-1
glib2 2.62.4-1
glibc 2.30-3
glibmm 2.62.0-1
glu 9.0.1-1
gmp 6.1.2-3
gnome-autoar 0.2.4-1
gnome-bluetooth 3.34.0+1+g96295afd-1
gnome-desktop 1:3.34.2-1
gnome-disk-utility 3.34.0-2
gnome-session 3.34.2-1
gnome-settings-daemon 3.34.2-1
gnome-shell 1:3.34.3-1
gnome-system-monitor 3.32.1-1
gnome-terminal 3.34.2-1
gnome-themes-extra 3.28-1
gnu-free-fonts 20120503-7
gnupg 2.2.19-1
gnutls 3.6.11.1-1
gobject-introspection-runtime 1.62.0-3
gpgme 1.13.1-3
gpm 1.20.7.r27.g1fd1941-2
gptfdisk 1.0.4-1
graphene 1.10.0-1
graphite 1:1.3.13-2
grep 3.4-1
grilo 0.3.11-1
gsettings-desktop-schemas 3.34.0-1
gsfonts 20180524-2
gsm 1.0.18-1
gst-plugins-base 1.16.2-1
gst-plugins-base-libs 1.16.2-1
gst-plugins-good 1.16.2-2
gstreamer 1.16.2-1
gtk-update-icon-cache 1:3.24.13-1
gtk2 2.24.32-1
gtk3 1:3.24.13-1
gtkmm 1:2.24.5-3
gtkmm3 3.24.2-1
gtksourceview3 3.24.11-1
gvfs 1.42.2-1
gwenview 19.12.1-1
gzip 1.10-3
harfbuzz 2.6.4-2
harfbuzz-icu 2.6.4-2
haveged 1.9.8-1
hdf5 1.10.5-1
hicolor-icon-theme 0.17-1
hspell 1.4-2
htop 2.2.0-3
hunspell 1.7.0-2
hwids 20191025-2
hwloc 2.1.0-2
hyphen 2.8.8-2
i3-gaps 4.17.1-1
i3-scrot 2-1
i3lock 2.12-1
i3status 2.13-2
iana-etc 20191231-1
icu 65.1-2
ijs 0.35-2
imlib2 1.6.1-1
intel-tbb 2020.1-1
inxi 3.0.37-1
iproute2 5.5.0-1
iptables 1:1.8.4-1
iputils 20190709-2
iso-codes 4.4-1
iwd 1.4-1
jack 0.125.0-8
jansson 2.12-1
jasper 2.0.16-1
jbig2dec 0.17-1
jemalloc 1:5.2.1-1
js60 60.9.0-1
json-c 0.13.1-3
json-glib 1.4.4-1
kaccounts-integration 19.12.1-1
kactivities 5.66.0-1
karchive 5.66.0-1
kauth 5.66.0-1
kbd 2.2.0-5
kbookmarks 5.66.0-1
kcmutils 5.66.0-1
kcodecs 5.66.0-1
kcompletion 5.66.0-1
kconfig 5.66.0-1
kconfigwidgets 5.66.0-1
kcoreaddons 5.66.0-1
kcrash 5.66.0-1
kdbusaddons 5.66.0-1
kdeclarative 5.66.0-1
keyutils 1.6.1-3
kfilemetadata 5.66.0-1
kglobalaccel 5.66.0-1
kguiaddons 5.66.0-1
ki18n 5.66.0-1
kiconthemes 5.66.0-1
kidletime 5.66.0-1
kio 5.66.0-1
kirigami2 5.66.0-1
kitemmodels 5.66.0-1
kitemviews 5.66.0-1
kjobwidgets 5.66.0-1
kjs 5.66.0-1
kmod 26-3
knotifications 5.66.0-1
kpackage 5.66.0-1
kparts 5.66.0-1
kpty 5.66.0-1
krb5 1.17.1-1
kservice 5.66.0-1
ktextwidgets 5.66.0-1
kwallet 5.66.0-2
kwidgetsaddons 5.66.0-1
kwindowsystem 5.66.0-1
kxmlgui 5.66.0-1
l-smash 2.14.5-1
lame 3.100-2
lapack 3.9.0-2
lcms2 2.9-2
ldns 1.7.1-2
lensfun 0.3.95-1
less 551-3
libabw 0.1.3-1
libaccounts-glib 1.24-3
libaccounts-qt 1.16-1
libaec 1.0.4-1
libaio 0.3.112-2
libarchive 3.4.1-1
libass 0.14.0-1
libassuan 2.5.3-2
libasyncns 0.8+3+g68cd5af-2
libatasmart 0.19-4
libatomic_ops 7.6.10-1
libavc1394 0.5.4-3
libblockdev 2.23-3
libbluray 1.1.2-1
libbytesize 2.1-3
libcaca 0.99.beta19-2
libcanberra 0.30+2+gc0620e4-2
libcanberra-pulse 0.30+2+gc0620e4-2
libcap 2.30-1
libcap-ng 0.7.10-1
libcddb 1.3.2-5
libcdio 2.1.0-1
libcdio-paranoia 10.2+2.0.1-1
libcdr 0.1.5-3
libcmis 0.5.2-4
libconfig 1.7.2-1
libcroco 0.6.13-1
libcups 2.3.1-1
libdaemon 0.14-4
libdatrie 0.2.12-1
libdbusmenu-qt5 0.9.3+16.04.20160218-4
libdca 0.0.6-1
libde265 1.0.5-1
libdrm 2.4.100-1
libdv 1.0.0-7
libdvbpsi 1:1.3.3-1
libdvdread 6.0.2-1
libe-book 0.1.3-6
libebml 1.3.10-1
libedit 20191231_3.1-1
libelf 0.177-2
libepoxy 1.5.4-1
libepubgen 0.1.1-1
libetonyek 0.1.9-1
libev 4.31-1
libevdev 1.8.0-2
libevent 2.1.11-5
libexif 0.6.21-3
libexttextcat 3.4.5-1
libffi 3.2.1-4
libfm 1.3.1-1
libfm-extra 1.3.1-1
libfm-gtk2 1.3.1-1
libfontenc 1.1.4-1
libfreehand 0.1.2-2
libgcrypt 1.8.5-2
libgdm 3.34.1-1
libgexiv2 0.12.0-4
libglade 2.6.4-6
libglvnd 1.3.0-2
libgnomekbd 3.26.1+2+g8d02ebd-1
libgpg-error 1.36-3
libgtop 2.40.0+2+g31db82ef-1
libgudev 233-1
libgusb 0.3.3-1
libgweather 3.34.0-1
libheif 1.6.2-1
libibus 1.5.21-3
libical 3.0.7-1
libice 1.0.10-2
libid3tag 0.15.1b-9
libidn 1.35-2
libidn2 2.3.0-1
libiec61883 1.2.0-5
libimobiledevice 1.2.0+87+g92c5462-6
libinput 1.15.0-1
libixion 0.15.0-1
libjpeg-turbo 2.0.4-1
libkdcraw 19.12.1-1
libkexiv2 19.12.1-1
libkipi 19.12.1-1
libksba 1.3.5-2
liblangtag 0.6.3-1
libldap 2.4.48-2
libmad 0.15.1b-8
libmatroska 1.5.2-1
libmm-glib 1.12.4-1
libmng 2.0.3-2
libmnl 1.0.4-3
libmodplug 0.8.9.0-2
libmpcdec 1:0.1+r475-2
libmpeg2 0.5.1-6
libmspub 0.1.4-6
libmwaw 0.3.15-1
libmypaint 1.4.0-1
libnetfilter_conntrack 1.0.7-1
libnfnetlink 1.0.1-3
libnftnl 1.1.5-1
libnghttp2 1.39.2-2
libnl 3.5.0-2
libnm 1.22.6-1
libnma 1.8.24-1
libnotify 0.7.8-1
libnsl 1.2.0-2
libnumbertext 1.0.5-1
liboauth 1.0.3+14+g186fb14-1
libodfgen 0.1.7-1
libogg 1.3.4-1
libomxil-bellagio 0.9.3-2
liborcus 0.15.3-1
libpagemaker 0.0.4-2
libpaper 1.1.28-1
libpcap 1.9.1-2
libpciaccess 0.16-1
libpeas 1.24.1-2
libplist 2.1.0-2
libpng 1.6.37-1
libproxy 0.4.15-13
libpsl 0.21.0-2
libpulse 13.0-3
libpwquality 1.4.2-2
libquvi 0.9.4-5
libquvi-scripts 0.9.20131130-4
libqxp 0.0.2-3
libraw 0.19.5-2
libraw1394 2.1.2-2
libreoffice-still 6.3.4-2
librevenge 0.0.4-2
librsvg 2:2.46.4-1
libsamplerate 0.1.9-3
libsasl 2.1.27-2
libseccomp 2.4.1-3
libsecret 0.20.1-1
libshout 1:2.4.3-2
libsigc++ 2.10.2-1
libsm 1.2.3-1
libsndfile 1.0.28-3
libsoup 2.68.3-1
libsoxr 0.1.3-1
libspectre 0.2.8-2
libspiro 1:20190731-1
libspnav 0.2.3-2
libssh 0.9.3-1
libssh2 1.9.0-2
libstaroffice 0.0.6-1
libtar 1.2.20-4
libtasn1 4.15.0-1
libthai 0.1.28-1
libtheora 1.1.1-4
libtiff 4.1.0-1
libtirpc 1.2.5-1
libtommath 1.2.0-1
libtool 2.4.6+44+gb9b44533-8
libunistring 0.9.10-2
libunwind 1.3.1-1
libupnp 1.6.25-1
libusb 1.0.23-2
libusbmuxd 2.0.0-2
libutempter 1.1.6-3
libutil-linux 2.35.1-1
libva 2.6.1-1
libvdpau 1.3-1
libvisio 0.1.7-2
libvisual 0.4.0-7
libvoikko 4.3-1
libvorbis 1.3.6-1
libvpx 1.8.2-1
libwacom 1.2-1
libwebp 1.1.0-1
libwmf 0.2.12-1
libwpd 0.10.3-1
libwpe 1.4.0.1-1
libwpg 0.3.3-1
libwps 0.4.10-1
libx11 1.6.9-6
libxau 1.0.9-2
libxcb 1.13.1-1
libxcomposite 0.4.5-2
libxcursor 1.2.0-1
libxdamage 1.1.5-2
libxdg-basedir 1.2.0-4
libxdmcp 1.1.3-2
libxext 1.3.4-2
libxfce4util 4.14.0-1
libxfixes 5.0.3-3
libxfont2 2.0.4-2
libxft 2.3.3-1
libxi 1.7.10-2
libxinerama 1.1.4-2
libxkbcommon 0.10.0-1
libxkbcommon-x11 0.10.0-1
libxkbfile 1.1.0-1
libxklavier 5.4-2
libxml2 2.9.10-1
libxmu 1.1.3-1
libxpm 3.5.13-1
libxrandr 1.5.2-2
libxrender 0.9.10-3
libxshmfence 1.3-1
libxslt 1.1.34-2
libxss 1.2.3-2
libxt 1.2.0-1
libxtst 1.2.3-3
libxv 1.0.11-3
libxxf86vm 1.1.4-3
libyaml 0.2.2-1
libzip 1.5.2-2
libzmf 0.0.2-7
licenses 20191011-2
lilv 0.24.6-2
linux-api-headers 5.3.1-2
linux-firmware 20200122.1eb2408-1
linux-rpi4 4.19.97-1
linux-rpi4-headers 4.19.97-1
llvm-libs 9.0.1-1
lm_sensors 3.6.0-1
lmdb 0.9.24-1
log4cplus 2.0.5-1
lpsolve 5.5.2.5-3
lsb-release 1.4-13
lua 5.3.5-2
lua52 5.2.4-4
lua52-bitop 1.0.2-8
lua52-expat 1.3.0-4
lua52-lpeg 1.0.2-1
lua52-luajson 1.3.4-2
lua52-socket 20190219-1
luajit-git v2.1.0.beta3.r68.g9b410621-1
lvm2 2.02.186-5
lxmenu-data 0.1.5-2
lz4 1:1.9.2-2
lzo 2.10-3
mailcap 2.1.48+14+g5811758-1
man-pages 5.04-2
manjaro-arm-keyring 20190621-3
manjaro-keyring 20190608-1
manjaro-release 19.12-1
manjaro-system 20191017-1
md4c 0.4.2-1
mdadm 4.1-2
media-player-info 24-1
menu-cache 1.1.0-1
mesa 19.3.3-1
metis 5.1.0.p7-1
minizip 1:1.2.11-4
mkinitcpio 27-2
mkinitcpio-busybox 1.31.1-1
mobile-broadband-provider-info 20190618-1
mousepad 0.4.2-2
mpfr 4.0.2-2
mpg123 1.25.13-1
mtdev 1.1.6-1
mutter 3.34.3+30+g4959ae8bc-1
mypaint-brushes1 1.3.0-1
nano 4.7-1
ncdu 1.14.1-1
ncurses 6.1-7
ndctl 67-1
nemo 4.4.2-1
neon 0.30.2-3
nettle 3.5.1-2
nitrogen 1.6.1-2
nm-connection-editor 1.8.24-1
npth 1.6-2
nspr 4.24-1
nss 3.49.2-3
okular 19.12.1-2
openal 1.20.1-1
opencollada 1:1.6.68-1
opencolorio 1.1.1-4
opencore-amr 0.1.5-3
openexr 2.4.0-7
openimageio 2.0.13-2
openjpeg 1.5.2-2
openjpeg2 2.3.1-1
openmpi 4.0.2-3
openshadinglanguage 1.10.9-1
openssh 8.1p1-2
openssl 1.1.1.d-2
opensubdiv 3.4.0-3
openvdb 7.0.0-2
opus 1.3.1-1
orc 0.4.31-1
p11-kit 0.23.20-2
pacman 5.2.1-2
pacman-mirrorlist 20200128-1
pam 1.3.1-2
pambase 20190105.1-2
pango 1:1.44.7-1
pangomm 2.42.0-1
parted 3.3-1
pavucontrol 1:4.0-1
pciutils 3.6.2-2
pcmanfm 1.3.1-1
pcre 8.43-2
pcre2 10.34-3
perl 5.30.1-1
perl-error 0.17029-1
perl-mailtools 2.21-2
perl-timedate 2.31-1
phonon-qt5 4.11.1-1
phonon-qt5-gstreamer 4.10.0-1
pi-bluetooth 1-2
pinentry 1.1.0-5
pipewire 0.2.7-1
pixman 0.38.4-1
polkit 0.116-3
polkit-qt5 0.113.0-1
poppler 0.85.0-1
poppler-data 0.4.9-1
poppler-qt5 0.85.0-1
popt 1.16-12
portsmf 234-1
procps-ng 3.3.15-2
protobuf 3.11.2-1
psmisc 23.3-2
ptex 2.3.0-2
pulseaudio 13.0-3
pulseaudio-alsa 2-5
pulseaudio-bluetooth 13.0-3
purpose 5.66.0-1
pygobject-devel 3.34.0-3
pygtk 2.24.0-8
python 3.8.1-4
python-appdirs 1.4.3-5
python-cairo 1.19.0-1
python-chardet 3.0.4-4
python-gobject 3.34.0-3
python-idna 2.8-3
python-numpy 1.18.1-1
python-ordered-set 3.1.1-1
python-packaging 20.0-1
python-pyparsing 2.4.6-1
python-requests 2.22.0-3
python-setuptools 1:44.0.0-1
python-six 1.14.0-1
python-urllib3 1.25.8-1
python2 2.7.17-1
python2-cairo 1.18.2-4
python2-gobject2 2.28.7-4
qca 2.2.1-4
qt5-base 5.14.1-1
qt5-declarative 5.14.1-1
qt5-graphicaleffects 5.14.1-1
qt5-location 5.14.1-1
qt5-multimedia 5.14.1-1
qt5-quickcontrols 5.14.1-1
qt5-quickcontrols2 5.14.1-1
qt5-speech 5.14.1-1
qt5-svg 5.14.1-1
qt5-wayland 5.14.1-1
qt5-webchannel 5.14.1-1
qt5-webengine 5.14.1-1
qt5-x11extras 5.14.1-1
ranger 1.9.2-2
raptor 2.0.15-12
raspberrypi-bootloader 20200111-1
rasqal 1:0.9.33-2
re2 20200101-1
readline 8.0.001-2
redland 1:1.0.17-7
rest 0.8.1-1
rhythmbox 3.4.4-1
rtkit 0.12-1
run-parts 4.8.6.1-2
sbc 1.4-1
scrot 1.2-1
sdl2 2.0.10-1
sed 4.8-1
serd 0.30.2-1
shadow 4.8-1
shared-mime-info 1.15-2
signon-kwallet-extension 19.12.1-1
signon-plugin-oauth2 0.24-2
signon-ui 0.17+20171022-1
signond 8.60-1
snappy 1.1.8-1
solid 5.66.0-1
sonnet 5.66.0-1
sord 0.16.4-1
sound-theme-freedesktop 0.8-3
soundtouch 2.1.2-1
speex 1.2.0-2
speexdsp 1.2.0-1
sqlite 3.31.1-1
sratom 0.6.4-1
startup-notification 0.12-6
sudo 1.8.31-1
suil 0.10.6-2
suitesparse 5.6.0-1
sysfsutils 2.1.0-11
systemd 244.1-1
systemd-libs 244.1-1
systemd-sysvcompat 244.1-1
taglib 1.11.1-3
tar 1.32-3
tdb 1.3.18-4
thin-provisioning-tools 0.8.5-3
threadweaver 5.66.0-1
tinyxml 2.6.2-6
totem-plparser 3.26.3-1
tslib 1.21-1
twolame 0.4.0-2
tzdata 2019c-3
udisks2 2.8.4-1
unzip 6.0-13
upower 0.99.11-1
usbmuxd 1.1.0+66+g9af2b12-1
util-linux 2.35.1-1
v4l-utils 1.18.0-1
vamp-plugin-sdk 2.9.0-1
vid.stab 1.1-2
vlc 3.0.8-8
volume_key 0.3.12-2
vte-common 0.58.3-1
vte3 0.58.3-1
vulkan-icd-loader 1.2.132-1
wavpack 5.2.0-1
wayland 1.17.0-1
wayland-protocols 1.18-1
webkit2gtk 2.26.3-1
webrtc-audio-processing 0.3.1-1
which 2.21-5
woff2 1.0.2-1
wpa_supplicant 2:2.9-5
wpebackend-fdo 1.4.0-2
wxgtk-common 3.0.4-2
wxgtk3 3.0.4-2
x264 3:0.159.r2991.1771b55-1
x265 3.2.1-1
xapps 1.6.10-1
xcb-proto 1.13-4
xcb-util 0.4.0-2
xcb-util-cursor 0.1.3-2
xcb-util-image 0.4.0-2
xcb-util-keysyms 0.4.0-2
xcb-util-renderutil 0.3.9-2
xcb-util-wm 0.4.1-2
xcb-util-xrm 1.3-1
xdg-dbus-proxy 0.1.2-1
xdg-user-dirs 0.17-2
xdg-utils 1.1.3+18+g0547886-4
xf86-input-libinput 0.29.0-1
xfconf 4.14.1-1
xfsprogs 5.4.0-1
xkeyboard-config 2.28-1
xmlsec 1.2.29-1
xorg-server 1.20.7-1
xorg-server-common 1.20.7-1
xorg-server-xwayland 1.20.7-1
xorg-setxkbmap 1.3.2-1
xorg-xhost 1.0.8-1
xorg-xkbcomp 1.4.2+7+g29fda8e-1
xorg-xkill 1.0.5-1
xorg-xprop 1.2.4-1
xorg-xrandr 1.5.1-1
xorg-xrdb 1.2.0-1
xorg-xset 1.2.4-1
xorgproto 2019.2-2
xvidcore 1.3.7-1
xz 5.2.4-2
yajl 2.1.0-2
yaml-cpp 0.6.3-2
yay 9.4.4-1
youtube-dl 2020.01.24-1
zenity 3.32.0+17+gfb0938f-1
zita-alsa-pcmi 0.3.2-2
zita-resampler 1.6.2-2
zlib 1:1.2.11-4
zstd 1.4.4-1
